{
  "data": [
    "Lm20taS7ZBK8aqoH+10U6DsErIMHRTd9kbpEX6NyoSADPVzNBKdeYpaYf49G8exGAayKNBI+DsBBcJIiOWzQ5oQIx77lIZlHKxvtSlpH3/5MR96JAUQk7IZDZVZYrPzlGPAsUwbIt/Yt+XGhGodnNrCbRfPv3tYkdP/6rB6bXp1gmkogpjT01JEZD2FLpe7ZMtJ9yI99KZqnIIrO8J5KEVWCjOBNJLabLmV14RPH6kV4nmpixzzaCSyQM86dPVdg82K3F3fpcEGSk21XREGb99Wqq1+gFTxedrmlFup0arR+XCollUYfo2RnBd7olAie339WVOMhkiDoBYtF5hVfew==",
    "MxFhp+DLOHro/aHJeI4Vn/GufQYn8V5AupbGCOYN1rQJdj+NYQI9wWjWErU4af/8FN1G+yGBYh3Pn4pOFZ7ByfLPD0+OkdeZGqe+9vY7T98+D8Sp0viJ6fTCbv4wpPuaTRTXie+xiNqmB8i3dPApP9dxJqLtHxbwMnlsSxVi51PXTSxPQ46ev/ZNC0+A/t92NsaM29q+OdxdnK7bgF13mUbjQUhQQ9WxI+7lu+4DNlMVJJhWVONslDyxtOkNwtERq3GUCagCH8o+YYq2Ei7hWTnqfYtmJQEDbUTFkTNOWgCfrZQm4mVGNldOvfbH2s3CEnD6s+/zNyfYH+CJdIbBqQ==",
    "Mb2kIGASaPqNs4EviQFd2MIlTaolG2aArbmkCZAwO4t6pWPLfk/kXRciPsiQ8hgYFDZ+jmd+LnKadKMcCQCmkB2lHPS8xQrjJfL9Bx8WWytY8TzCZ42GVtbLZgfTEsLbkPad6C7jaDvhNbrUzrlEcb1M/CkFpzvYGwdYiJs6ZCwvzCcsEolW8IrWzO9wD463L3r2Y2KNKOb4wd0GF6imVIb8sEbqtdotK01UI3KpXl2OHNAXD6lwIRTb/hNFUyu9XsHTFp8A1Jngx107CLOyb+/AQkWYCuwijQ8PPmh6n8nf+kwZ34ieaAIcfdlwT7eYeLfKVXYVpFpVfyo5Ri24Aw==",
    "p10Y0kydyRnIdkpssMhf1cBUgYv4gATkspWUUPpK/4rMsfT4zKWWzHYS8ohEYBsl1cVMqu19pr6XzVLD60SO18twSKvbCQa7XUBVCPXAO4ROngWTtecaMRp0DuMsEKTNr1Ww9yu0bBZ3qsBzzenqjhH+M9rKYWatQM54FcqWoflASjSyMApsTcTjuTWEm8QO41qc5jtFNDH1wKjPJwhWodwrZLJ94dGXpA3PnNvw/BG/evPwQAskTiVpk8+buB5pnx9UUU7Dq1OAzMoCPS6Pmy41eSWyYyXwNpyej7XBfAy/or2TQzmPZodBAbMD8JmOGkpSxecMqG3jYdWAhjMuug==",
    "bD67b1yT9OjwvWmBkqJakneidLfZLSjX9iBhld0n/g37/3wB9dh+U4gY4eRoBZrIhhEyAmUwo9n6yHdL21Oz1R1ofCv2XjFs7dM/XI11pzDU0mQU28z3zksVzFPvYSJcJycMjXjxQ1vCSmPGWvVAW4KjscGsDq69M/1KcKspq/6P4z+rkRedXYiykssfmqBoMMBbHUAlUX/9xtYBlJzgNW23/cK+prLDeovPlmG5X+7R4sJ4bKCHTmR/+0fH1ORZNyMG5QMvOJsgSzehzPMDabRUrt9xYoKXWZ3FzeQf4kjqACcnnInZyqDSV+7SfSpVVxeIX8cKEwjrerxFWGZRSA==",
    "cOWCdmVd2HTG2EHQQNQpq8NFzflt+rII+aWFW93JeTevH/iuEqN8eWHCz78F4znujj+pcsvhL/wGlg/QVFB9WWqVJaoJ3+HHBQ+LR5KDFx40FLpn78OcpJNmvjXizGwnQ2WKhq0XyDKj/E21KUUq70hEHOurqMY5sbAiv9Ddi8URRPs+KHctd9ocdaSmeCbeCfCINjZ6sPh5m/eMZ1XFvCh4S98KsVbExjIXwu9mfb9uDkGNTvjaLuxLAPuyiOQSRAraz6bdw7J7G9Hobdk8xYnEpxK22WPqoeBP4OQGAeSSyjT/paWIlMgsCF+K8cLbkGLkKU3blbaSeQF33CM40g==",
    "I/IFc7JlaFmmRmvzW77qqDVkxaJ3b9iW21A6bm4SCOpsMid3tB+fA7YXEv7knC+z7akQMVFJS7m/6V8Z0H7S6xJ0qWAPyyJ79JA3Rme91zf7uwtzW0AF3KSlaTM6sRV+7oX0sTaLJqC2GZpd3iriUOHF4sM60z79FqPDgXBvxnkgSS2GyarYGq7xeZlgeSpFnMaWqpWl0JOfhRtVgP7GbH6Xn4eC/hVFNeaknfp1VGCSv07l/cy8Kgl46F4Uk7a57jzL5HcbjYwCTlwQINWcw4itwi4wEAq7f9jKtvqTRjrbwKfI7GiiHVqrvXmxmRr1lMAw94jHJqruu2SVQbK/6w==",
    "gq4Ui6e8rbd5NkyF/VGB8fxqlnVC/m5esLvy1aFd4KlMUwSnHBrwbREYjTJS+vI0lsJtRF9ObXDRmVQf04OQd7eIzAoGxu61d+6LroWafRy7Hi23sJT3T2+tv5Sdzpbowxi/dLZQRTl4QIxUMwcnojRoMQkqf3hH/1qXaKxitJtX0cSVgrTJKdqLI4Csi6MWrllbEJ0mfEKw0MPqbYTebkO1h9xXXY+jY8/IJI7pmY6R3oJpYKFNW4/vJptukJYq77Md9FS7+YFv2tDhQnOTdzSPgxVVeAih2ONWBJGRNbpFbcvd0w9y9mTxiTFKrtiJu8d7xpzFf5XtDVsd9Xn7zA==",
    "dFfY43O2Vl72tyVvP7L+F//+W5z7tWS0/+A7zyDg3x+fwM1HHSlZSS+ShTZF5V6lak2zzng3fN0CWtkkp3VsnAff5r7npGhjJnL3V7Uh1xtBJef1bPgt3o4aAoflUbteSOCS12WEM3GGyLaz5q1+GiN7yDliLCIZUddmVkfrlx7m0zFbdFDz7/UeRbv212KtU6ABg/+Zp54IP/xBfs0E6Ja6pMeOSq0YHbXu6yhZpeuu9SiSsSDY8DDVcFuvWmb7/HUtfiJfkmOTr0PxnqNmadWclr8l8PrtD2jU89b4+gyKsXCpcdBELFF8oJO04DfoLwyi2v5vF8FmyV23By0xmQ==",
    "K1nRGcQikGxA7+Lm7kjGuEqnpcBCr7bEqq0ST0J8Z351qdGsgg9GismpjL0Sq28db5sDIUrtPSo0mJz4cQuIdCFpSjOF+M76Ut6Iqhfqm26iClMcrhZ2h55FP/oZdsFipwBN5zbCxDSt8xY8dM3vwhB+OVH/zR4U33QPHnOoB0cETuF4CX6+JyBFRZ/Qz9wN3b2Kr6kyw0EZw5jKEVfQnu5G/GXFSwTC199dfx8ZH4BodXj78gaWdefUyyfGLJHDoHK+5rWIR8Vwy61YA/pywmaiBc3/YK3i5son5wqBzLdbrW9k9/ysnPagnATxGtITcrh3UsSKWTKdyZ1MmdlFlw==",
    "ayN/aeqtiwXQlluvg9t43Xzy8E8rXv6JRrwY4SSRUtK0Mh0l80652ofg6QeL6HUaeyR1V0pRhJDV97XAvznemTt3Xzh0nHknGQiO+T0fuZKR8iB/Xrnb5emqUgjrbzcPnWenJycYkV3iM7PmClaXuIt8ldw9o7FYA5hbO5SLFFo+lPEwH2stCSeWNlU2KGmTRwK3ZfIi6E6QJrxjsmxm63ewdk2+T2G5CYUTxQzsLVSVxPm4ZokCZQuO6Z+6vtLgZSCRs6hELrAJxKkl6uaLEuJPOwUXabpuAKzRcfup5l6jqJoptgq2geIaiF6T8xk154OBVjHmv/mBvSjBjpQOUQ==",
    "ASEUv78De4zfv/uTs7Fr12smUJDIMtjkdWI6wWmT6RUanqvlZANdAahhJic6B0kWHAC5nq0HG0Lk62IIC0RlnLAd2EQ4VXgYraKuARnxzRUBCB7U9qF+4ChNibbPMec9sUjJAonqVSQ1IzSy7b9Ugo+X3/XQxkaZA5W23uhNNt9qgsFRppm7C76BIuXzzZCqXAYxQ6y8pDpFVxBftW/1Q6J/zobzU1r7K7fpPr7aN+p4NgjoLGG7yCq3s1lgZ0uCynT5JG8L1fLhT2NGIeL51KpdiTGKwThjjDTHv1lhVkJIC3XGQvMyFxXBomzK8Cw+35vvZ/iLss70Y/GlHD3vPw==",
    "CkiyDjr8T6/ibPbttD8YyxmTjZffPJNFt4Hmqv+9hnKNb48erEv12EPMxvOlssB5cg7cDxMf2Pk5FoGxttyFwmSZqPHLXxQRVe1wu90Q+1cq8d/KGlTgLmp7JUrh0jAVN4j4k1tWNXFKUhgBAJGmifW6zaGjo9SHK9oxvul5A38Sc/MnaDNR6axT+shAD9PFeLn+5p3IDXh5C0EPzUZKSKX31tfcADoJV42Ebd5yDpypg5NCTZusBJDQ7smhVqe+pXV2pkYGKR0KRPnM2NHiyxDCOs6noba4Ax+6rXMWHNT/uZz6P3i97rYcGZhMzilI3q7Rl1NOG8XY+eyWZPxHlg==",
    "eRxlCjzpZZpIzUwOxnDvj4nnObtBUqijcQFNjlJX6KJaLob3/7HtJo7jKBi2hF8cb4tXVany+eekZ254zZD52pFFvVJ0bwnX2eAiRWSzdxNF5JZNpPwX37V2GpVMNUX9zJOO+qwcb7PTTtweOBp6lDV4uTGEkJP4j9HNZ6Wh1+zEiyzhPaUZfN5VghDz2kabfDcd7TlsiQUqK6+eAQYSYlrE/TGUy1qDvbYDltZEEB7QV2hGtyVfI5mj1hKa/QUGNlcStE6Wr+Iqnp+Rc+5V5zTfvg2jUhyhnX8E8WLJa3wt7tkUPBby6J6lzj7dXu8aKxqyBdhLkQIBVsisaxBFwA==",
    "M6ROkHuN0Vk4k0Xleo4j6Zx9G66LchHjYXhDehVVQfbrWVN+K6fgXpxtkCSBuZdN0VlIYLIKBhap7JjsLVh4TuxrqP2QHZm9GwWPk3yWOUbA7AHP9gRqm7Otnm4/C7pBPXDyrPESMddx1Z3tI3Jc01rIZbFL3r0stauD7HwBcF69/OOyH+GSwx9lCdEm4j0ctavmZ++VZtO/wxrrGno4oZqoc37igZukK3zJzmeZdC2soB3iBpVPCeLWJdFaBFbIm4exvXsqAr94l/AUcfElLb83hbZa/ilWBRVdLUfMM3Wxf7+ooyhUFUAh9+DE7MDaZdmXUZhVgCL89hYdFpjlCw==",
    "hQoapUGm7HqULc/mdVRJx3t554XV4eyHWAUkUhUpxRg0j/hLBVveyqtBgi6PAHnbNr+uOomR+eZukwFw7UyZEFFvjyutCdCwzKt1CS+wU6yhhz4fkXJiaE+OeNu7hGlcqn9TiaROYcqVFxgaAO/N4EnBsNoGnyr0UgZImufymJkp8xuQfzfhm5LL3Z2mFoE+mARTxysv7G2cK/cFugUgctdL+DxpH6D2zYLNTJak9BX9/CkCPBuw8tv0SnN9B3a0gXlAiCrCJKXaWXLJtF9KkO7/uMNNlMzYFbcxHcVydn3yzJiT0an4Vx+a2+fAx4r3nGQQYzC0ZB0E+seaI+qaOg==",
    "Vrlr/wJ4V7bWhgjwzr3VNgJ7Clv45WNu/vyaM4436hOEuifrt/ttHA63+KZhj77NpiujsLH02FueirU9dIHxsIf1ThXeHoOAys+1z/iIaQY3HN5ldyUomHaG+ooE7mF70BJYAtq66jlqWFJnNFC2g+TIQ29mHcF91TkvJ8hlwYnpwlWH1YIet1jQb5b9aX4CHrIScnXnOlk0+tXpqVjRHCd0z4VPunG842g/rI8FusAePFKIDJVR2fwApuraAFTOwWd+N8MStkQcIKGvdo8GlsLdn0qXN/ryOmOG10w7d+YQNLoDyAjyg05bIxAXuajFfeJCtx2XaZfDkdLSC/unmg==",
    "XnIZd+mYjkq7Ib2Vh3PjB/aOcvHHrrRFsjD2zxMQL/zbp5J1xJb404FeV5sC/dKVYNpkbp4taSfZBwEa83UtJ92VIjBIseZAHQR5HDAIIEgZxKWPJFcT0M9uEL5e4N47wCqqPiRDaWUKE2cq3+EDYC/FKB9kliLSGG5dWfbHQl5C3DguknkYoqcuEVedBdaZKa+Cf+PIGeyTUz+jZvFKV/pMT91JpOZ/Z0EPMHLQy1EtYWITOxkcMKdWxKHk4NOQoXt9MBlHH8MLldxqhMUfel3vA7WWm2vF+Z0zeDhT/W21X1s+I6YFpwxkZDD7l1AeT10rFvJeqFjWJPaMULuFXw==",
    "nPy1kQ7Dc4DgSf1BbWkRiF4k+NQ+5SJdaq7AhIM71FPirklScl3D+3f+P8GU3OdEaTnp6zIoGfrt3FhLkW9/FN0TjKPQabosjI3Gjx/01BuL41oCoBRpHdfkPMhD6L4HDGHeNklZgPhN70tFM2MhP2eKO5t551nxfmrd7f4ouYdDn2S9lkkIBUGZ1NThNBY99FtjtBm051yolGGk86UY23JgoyzlKMRWDXpJl5CFusNcTESLLPRzQWrenIIUU/wKJ3laPEF1ihj9PF1hpijW/vCZ3VsTUP97nJsh8F251YvwSCsaRXF8uM1bo5MqjK5kKqCVRwgaPXEXmnmHG3XgBA==",
    "i4eTnk/4ilwmfNPWpzr8aJ3RBEgnPmZ1d3LfpQaZDbYiEqXFxXtjLL1/xTScERyjp/DZHMUfXsJeCi6wHiEJwZvs287gEd/g2+/UjIM2RRqfYedaaMGbi9/iX/SwqZQAkJENi++niwGgZHtjJblKhOPV5CUOTiwotlItHhUM8Hrn43KRVzYo9KasI5pA96CiohZKBtd4WVNDXXEpZ2H8N+GHspr31kC2v0hBFkTNSHrCMwMDgPnTaK3NwkhfQvnQw9pySdm7PFPfyzJCdpAg82N9Eg4Vh/QU7TbBDXYmHpCb4DoMeq/ppXjyRbgTqCpDUPlnsl4NnRGIxgkUYC9xEQ==",
    "nF/38oN670ou/iqZZFkTnBMz5zFc/dAHnuOwfDqYODnHhtmNJc3JcNYT1ma5ZMqKbw9ZB9qfA4CWN2vpPFOtvk4Dy/Weka5M6zPyw735xDIPn/AiZOwHjCyp2HNPNGWbIPwnYShCtph6IaGVP0iigzPgIjLr6/S4mGo8wfkjBgjdNgT+hextzaGBzRX691dsl5Jw6D4kIv0D4fRPH3utNxLrEPQAmoFgQqnIitIXRxpsd0fHxDyc7jXbKEQx0MgYdN5ezUlU8CK/9VZcpmb5YXAMRS/MPwoQBGhRreX65xCYYbpQCj75a0cAAL6Xt+pkWlrwYk96+XyPNWkmXzbzog==",
    "GJykQWRipyC5gU9pfriCJuBOx8WY5tFg+uSTI/08ZK6j4StSAaag8LaI09zXpXhFTBPocLJBdJpAZRWOZ4UBt3X0nMx8yO3YlnDDuJkRQBq1n5TuiXBdDUAAQXC/wpDDEdthantyxONMvqRAzkBqhWsYZVkWsIoCDczMsDx0jOTyrsnMqbgPe6GMTyXn+Xav+JHv6KNB6m4yxIx5sb5TrOTmxIi2CpNlkU/bXJUBWeNQAUBJxTdULcfxuRHGSulxya62jYU0LQIYGY89JsvysnpZHCLrVxcvd0QaignKFVP+FiXpBhzTJaKc8lCa00hiHGymkRPTo9w6w6duDmyW/g==",
    "ep0kR3ghTRhDeKFNW6cPOkdKIn8/s6spiJ4zeb/UjRDNlECATNdEgmb9W9WCuBR6qQQ37gRu/U6mCEdTQaEfiogF05zOQg8a6t2sPXIWFCoVebeoT3aDMjQNJe++9iu3HLcEbBqz6WdlBX/YE9RhS1KfRmU8XtrOEf8+KsEXq+HHqfLXn8iOyvoxAPMLzyU+OEASRbXz/H6S1D6ibzcbyeiymF2tHUKeMm6et+dGrepIpxeFvc0BpbYOhNYfDUKQoRItTnSDIbJJ1tZHWVxecQP9qGNfPN4IsoZFu8l08QY5D+c08gO9V2opMxUDsqkGzPfLwCxfF1XuKsAGMPkjTA==",
    "fW5OcIgQIUdCaWfQv+b4aqCcTQCZWV0NFAWQvPqwVbNs+A+85niYQoaSWNxiuT8onGn1U194f7B3nrWN1JQIbWsBatuctKftRvKt9zJNsGzZNF9kXo5o9ihwo/9YKY7lwymVL2rrQ2QtwO6biI+w2WqE/RNxAn5gm0KbXG3JDPMPv8ZF5NKrsTLt7y7OiMTNEVG2+Dej9vC7eLHZasSDcLf0vHyAOgwufwqv/ikUNWIKMwXgytYh0jAEMjN53992v9rTgkEzama9xSTRYjl7h0mHdiSlL4DzfGZSvHWlZSIDV3jcTspjtvWi2/ZBx7W3XiwdMH9bSdCSjtRrYI4Kiw==",
    "SuwJ3Tpo03ou+Vz0ZhE7xShNHtRorOLu7u8ElMMAue4hRIq/a8pR1pWzJ5NxYLgFjKTJ9JVPnLg/mWQ6x3c/W6s51SZLGZ9mkY7smv6CW6HjG5bib0g05I+jLUzFc9SbOH0QgFZnPXDwfFDo7t6XZxDYCwgU7OPB/2fzlmY5GX5/gHYBXW+Yn2D9mrXFYbpfpwQkqBosB8k41Okhqq5E0TeyLKgCN/IVpFEF48jmytqjQPA4ETUGAPMX8+8z0DUWveyqn+Pjq7snUDaI0w/C8oZ+6krhbV0zqRJzPD4gaBohgXPiByXguI+Y7oJXbBJ1OeV2UgM09o9cYRpZxlSvgg=="
  ],
  "has_more": true,
  "page": 1,
  "page_size": 25,
  "total": 500
}